, meanTotalTime, 0, meanClassTime, 0, meanWorkTime, 0, meanHomeworkTime, 0, meanClubTime, 0, meanStress, 0, meanAssignments, 0, 
10/31/2022, the, 67, homework, 4, been, 4, stressful, 3, over, 3, busy, 3, get, 2, with, 2, on, 2, trying, 2, long, 2, some, 2, about, 2, all, 2, as, 2, overwhelming, 1, exhausting, 1, unfulfilling, 1, hospital, 1, sucked, 1, hated, 1, being, 1, poked, 1, prodded, 1, at, 1, want, 1, medical, 1, issues, 1, be, 1, pissed, 1, that, 1, 6, 1, hours, 1, wasnt, 1, enough, 1, time, 1, do, 1, finish, 1, circuits, 1, bad, 1, grade, 1, tiring, 1, place, 1, everything, 1, working, 1, just, 1, scrambling, 1, right, 1, had, 1, an, 1, early, 1, morning, 1, late, 1, night, 1, filled, 1, errands, 1, exercise, 1, feeling, 1, stressed, 1, falling, 1, behind, 1, up, 1, tired, 1, after, 1, mostly, 1, casual, 1, anxious, 1, paying, 1, rent, 1, need, 1, manage, 1, finances, 1, its, 1, changed, 1, major, 1, spent, 1, most, 1, rescheduling, 1, years, 1, also, 1, because, 1, have, 1, exams, 1, this, 1, week, 1, well, 1, few, 1, doctors, 1, appointments, 1, distasteful, 1, meanTotalTime, 9.5, meanClassTime, 2.75, meanWorkTime, 1.9166666666666667, meanHomeworkTime, 4.833333333333333, meanClubTime, 0.0, meanStress, 3.6666666666666665, meanAssignments, 1.1666666666666667, 
11/1/2022, the, 60, but, 4, very, 3, with, 3, stressed, 2, about, 2, for, 2, had, 2, work, 2, homework, 2, good, 2, tired, 2, time, 2, that, 2, there, 2, solid, 1, schoolwork, 1, classes, 1, during, 1, exhausted, 1, at, 1, end, 1, watch, 1, an, 1, episode, 1, played, 1, friends, 1, overall, 1, tried, 1, prepare, 1, exam, 1, falling, 1, behind, 1, feeling, 1, super, 1, fun, 1, productive, 1, lot, 1, practice, 1, cannons, 1, taing, 1, uneventful, 1, just, 1, did, 1, circuits, 1, entire, 1, stressing, 1, me, 1, out, 1, luckily, 1, done, 1, before, 1, midnight, 1, amount, 1, spare, 1, hosted, 1, club, 1, meeting, 1, low, 1, turnout, 1, still, 1, positive, 1, experience, 1, despite, 1, how, 1, miserable, 1, felt, 1, hard, 1, take, 1, in, 1, understand, 1, or, 1, process, 1, what, 1, panelists, 1, were, 1, saying, 1, due, 1, constant, 1, state, 1, sleep, 1, deprivation, 1, meanTotalTime, 10.333333333333334, meanClassTime, 2.3333333333333335, meanWorkTime, 2.6666666666666665, meanHomeworkTime, 4.666666666666667, meanClubTime, 0.6666666666666666, meanStress, 3.6666666666666665, meanAssignments, 1.0, 
11/2/2022, the, 40, feel, 3, which, 3, me, 3, exam, 2, had, 2, good, 2, made, 2, tired, 2, in, 2, nap, 2, will, 2, tomorrow, 2, an, 1, harder, 1, than, 1, expected, 1, dont, 1, about, 1, cranky, 1, pissy, 1, easily, 1, annoyed, 1, but, 1, drank, 1, some, 1, hot, 1, coco, 1, fiz, 1, ate, 1, burrito, 1, better, 1, took, 1, refreshed, 1, energized, 1, only, 1, one, 1, easy, 1, assignment, 1, do, 1, welcome, 1, change, 1, after, 1, last, 1, days, 1, hell, 1, very, 1, tiring, 1, stressful, 1, went, 1, through, 1, lot, 1, general, 1, frantic, 1, flurry, 1, near-constant, 1, work, 1, just, 1, want, 1, really, 1, being, 1, dumb, 1, procrastinated, 1, wasted, 1, likely, 1, cost, 1, be, 1, busy, 1, meanTotalTime, 8.875, meanClassTime, 2.75, meanWorkTime, 1.25, meanHomeworkTime, 4.625, meanClubTime, 0.25, meanStress, 3.0, meanAssignments, 1.0, 
11/3/2022, the, 46, but, 4, that, 2, lot, 2, very, 2, exhausted, 2, an, 2, will, 2, built, 2, different, 2, relaxed, 1, did, 1, chores, 1, needed, 1, do, 1, sleep, 1, early, 1, tonight, 1, extremely, 1, busy, 1, had, 1, motivation, 1, feel, 1, like, 1, achieved, 1, proud, 1, however, 1, tired, 1, still, 1, stressed, 1, overall, 1, good, 1, exhausting, 1, one, 1, not, 1, done, 1, with, 1, homework, 1, likely, 1, pull, 1, all, 1, nighter, 1, because, 1, simply, 1, by, 1, mean, 1, defective, 1, stupid, 1, be, 1, tomorrow, 1, right, 1, caffeinated, 1, started, 1, off, 1, terribly, 1, been, 1, improving, 1, skipped, 1, class, 1, work, 1, in, 1, morning, 1, want, 1, focus, 1, on, 1, cleaning, 1, house, 1, meanTotalTime, 8.5625, meanClassTime, 2.8125, meanWorkTime, 0.5, meanHomeworkTime, 4.25, meanClubTime, 1.0, meanStress, 3.0, meanAssignments, 0.75, 
11/4/2022, the, 72, in, 4, get, 4, is, 4, had, 3, for, 3, but, 2, however, 2, good, 2, have, 2, done, 2, which, 2, couple, 2, school, 2, well, 2, tried, 1, much, 1, pain, 1, no, 1, amount, 1, advil, 1, could, 1, rid, 1, terrible, 1, cramps, 1, skip, 1, class, 1, work, 1, felt, 1, bad, 1, letting, 1, coworkers, 1, groupmates, 1, down, 1, did, 1, some, 1, rest, 1, looking, 1, forward, 1, tomorrow, 1, being, 1, better, 1, many, 1, cravings, 1, ate, 1, more, 1, calories, 1, than, 1, probably, 1, this, 1, whole, 1, week, 1, guess, 1, havent, 1, been, 1, treating, 1, body, 1, enough, 1, lately, 1, maybe, 1, its, 1, took, 1, off, 1, talk, 1, mother, 1, fafsa, 1, sucked, 1, knew, 1, do, 1, that, 1, anyway, 1, luckily, 1, almost, 1, can, 1, likely, 1, submit, 1, days, 1, after, 1, we, 1, questions, 1, out, 1, way, 1, financials, 1, taxes, 1, financial, 1, aid, 1, always, 1, stressful, 1, oh, 1, test, 1, results, 1, came, 1, back, 1, negative, 1, cancer, 1, plus, 1, they, 1, dont, 1, know, 1, what, 1, mass, 1, options, 1, further, 1, treatment, 1, are, 1, limited, 1, skipped, 1, unproductive, 1, slept, 1, though, 1, meanTotalTime, 3.5, meanClassTime, 1.5, meanWorkTime, 0.0, meanHomeworkTime, 2.0, meanClubTime, 0.0, meanStress, 2.0, meanAssignments, 0.0, 
11/5/2022, the, 18, had, 3, drunk, 1, right, 1, good, 1, ill, 1, do, 1, homework, 1, tomorrow, 1, really, 1, stressful, 1, just, 1, kind, 1, sucked, 1, very, 1, busy, 1, but, 1, no, 1, motivation, 1, nothing, 1, done, 1, there, 1, also, 1, lot, 1, tension, 1, meanTotalTime, 4.0, meanClassTime, 0.0, meanWorkTime, 0.0, meanHomeworkTime, 4.0, meanClubTime, 0.0, meanStress, 4.0, meanAssignments, 0.0, 
11/6/2022, the, 51, up, 2, feel, 2, no, 2, matter, 2, never, 2, all, 2, want, 2, do, 2, did, 2, more, 2, this, 2, but, 2, lot, 2, be, 2, woke, 1, late, 1, hungover, 1, bad, 1, on, 1, homework, 1, not, 1, great, 1, laid-back, 1, unproductive, 1, relaxing, 1, gotten, 1, stressful, 1, as, 1, continued, 1, there, 1, are, 1, many, 1, deadlines, 1, coming, 1, final, 1, projects, 1, approaching, 1, that, 1, falling, 1, apart, 1, tired, 1, how, 1, much, 1, sleep, 1, well, 1, rested, 1, is, 1, nap, 1, have, 1, stress, 1, go, 1, away, 1, what, 1, happens, 1, just, 1, cry, 1, been, 1, decent, 1, relaxed, 1, took, 1, most, 1, off, 1, does, 1, mean, 1, stressed, 1, in, 1, future, 1, also, 1, some, 1, volunteer, 1, work, 1, resolved, 1, conflict, 1, meanTotalTime, 4.0625, meanClassTime, 0.0, meanWorkTime, 0.0, meanHomeworkTime, 2.9375, meanClubTime, 1.125, meanStress, 3.25, meanAssignments, 0.5, 
11/7/2022, the, 78, which, 4, little, 4, class, 3, out, 3, with, 3, time, 3, that, 3, in, 3, but, 3, been, 2, for, 2, have, 2, after, 2, rest, 2, up, 2, homework, 2, be, 2, sleep, 2, bit, 2, nice, 2, on, 2, spent, 2, distracted, 2, problem, 2, circuits, 2, slow, 2, do, 2, by, 2, decent, 1, walked, 1, cold, 1, spending, 1, hanging, 1, friends, 1, okay, 1, rejection, 1, really, 1, demoralizing, 1, however, 1, solid, 1, keeping, 1, helping, 1, girlfriend, 1, her, 1, surgery, 1, cramming, 1, an, 1, exam, 1, tomorrow, 1, there, 1, will, 1, small, 1, amount, 1, scared, 1, tired, 1, made, 1, majority, 1, classes, 1, working, 1, couldnt, 1, figure, 1, professor, 1, luckily, 1, enough, 1, stay, 1, his, 1, office, 1, hours, 1, help, 1, me, 1, question, 1, makes, 1, some, 1, more, 1, sense, 1, work, 1, went, 1, well, 1, being, 1, wish, 1, could, 1, just, 1, job, 1, perfectly, 1, not, 1, feel, 1, self-conscious, 1, each, 1, task, 1, night, 1, doing, 1, steady, 1, progress, 1, wanted, 1, asleep, 1, midnight, 1, sadly, 1, later, 1, than, 1, expected, 1, since, 1, get, 1, cleaning, 1, eating, 1, food, 1, meanTotalTime, 9.5, meanClassTime, 2.5, meanWorkTime, 1.5, meanHomeworkTime, 5.5, meanClubTime, 0.0, meanStress, 3.5, meanAssignments, 1.0, 
11/8/2022, the, 26, about, 3, feel, 2, homework, 2, sick, 2, bad, 1, waking, 1, up, 1, late, 1, washed, 1, car, 1, cleaned, 1, apartment, 1, stressed, 1, an, 1, interesting, 1, took, 1, girlfriend, 1, hospital, 1, for, 1, routine, 1, procedure, 1, then, 1, did, 1, ton, 1, went, 1, work, 1, felt, 1, like, 1, but, 1, wasnt, 1, weird, 1, overall, 1, been, 1, headache, 1, light, 1, workload, 1, deal, 1, with, 1, which, 1, is, 1, good, 1, anxious, 1, current, 1, state, 1, world, 1, meanTotalTime, 4.5, meanClassTime, 0.0, meanWorkTime, 2.6666666666666665, meanHomeworkTime, 1.8333333333333333, meanClubTime, 0.0, meanStress, 3.0, meanAssignments, 0.0, 
11/9/2022, the, 133, for, 9, in, 6, that, 6, good, 5, but, 4, homework, 4, on, 4, felt, 3, some, 3, get, 3, went, 3, exam, 3, hours, 3, circuits, 3, me, 3, classes, 3, there, 2, more, 2, done, 2, schedule, 2, need, 2, tomorrow, 2, will, 2, class, 2, made, 2, not, 2, better, 2, slow, 2, been, 2, at, 2, into, 2, fluids, 2, through, 2, damn, 2, sleep, 2, long, 2, did, 2, with, 2, professor, 2, wanted, 2, go, 2, able, 2, all, 2, nonstop, 1, go-go-going, 1, work, 1, unproductive, 1, wish, 1, could, 1, contribute, 1, didnt, 1, pay, 1, any, 1, attention, 1, ta, 1, feel, 1, doing, 1, job, 1, spent, 1, 5, 1, fiz, 1, like, 1, nothing, 1, guess, 1, figured, 1, out, 1, spring, 1, wasnt, 1, efficient, 1, enough, 1, do, 1, future, 1, review, 1, session, 1, just, 1, stressed, 1, than, 1, already, 1, least, 1, club, 1, meeting, 1, over, 1, quickly, 1, is, 1, registration, 1, doubt, 1, ill, 1, laboratory, 1, its, 1, okay, 1, we, 1, find, 1, way, 1, this, 1, cant, 1, wait, 1, bed, 1, be, 1, gym, 1, progress, 1, grade, 1, studying, 1, exams, 1, eat, 1, very, 1, well, 1, affected, 1, mood, 1, would, 1, have, 1, proper, 1, time, 1, management, 1, easy, 1, sleepy, 1, had, 1, lab, 1, morning, 1, super, 1, frustrating, 1, then, 1, giant, 1, argument, 1, student, 1, anxiety, 1, inducing, 1, terrible, 1, kid, 1, register, 1, even, 1, times, 1, finally, 1, news, 1, running, 1, manufacturing, 1, engineering, 1, were, 1, unbearable, 1, took, 1, afternoon, 1, thankful, 1, staying, 1, little, 1, later, 1, let, 1, take, 1, after, 1, home, 1, seven, 1, straight, 1, miserable, 1, ready, 1, god, 1, nap, 1, busy, 1, run, 1, nice, 1, also, 1, ahead, 1, happy, 1, about, 1, meanTotalTime, 11.083333333333334, meanClassTime, 2.8333333333333335, meanWorkTime, 1.75, meanHomeworkTime, 6.333333333333333, meanClubTime, 0.16666666666666666, meanStress, 3.1666666666666665, meanAssignments, 0.8333333333333334, 
11/10/2022, the, 69, for, 4, in, 3, early, 3, some, 3, work, 3, much, 3, go, 2, out, 2, off, 2, class, 2, able, 2, get, 2, at, 2, with, 2, circumference, 2, me, 2, an, 2, opportunity, 2, excited, 2, this, 2, slept, 1, went, 1, gym, 1, might, 1, latino, 1, night, 1, tonight, 1, started, 1, too, 1, hard, 1, not, 1, fall, 1, asleep, 1, luckily, 1, managed, 1, stay, 1, up, 1, half, 1, pay, 1, attention, 1, lab, 1, ended, 1, into, 1, tutoring, 1, questions, 1, answered, 1, manufacturing, 1, engineering, 1, fluid, 1, mechanics, 1, classes, 1, measured, 1, balls, 1, precision, 1, equipment, 1, we, 1, found, 1, advertised, 1, be, 1, larger, 1, than, 1, actual, 1, hang, 1, fiz, 1, friends, 1, done, 1, english, 1, but, 1, then, 1, call, 1, from, 1, blue, 1, origin, 1, notifying, 1, internship, 1, happy, 1, loosing, 1, shit, 1, is, 1, such, 1, amazing, 1, exciting, 1, do, 1, networking, 1, have, 1, fun, 1, job, 1, just, 1, cannot, 1, contain, 1, excitement, 1, called, 1, grandma, 1, grandpa, 1, stem, 1, mentors, 1, they, 1, are, 1, all, 1, woohoooooooo, 1, aerospaceeeeeeeeeeeeeeeeeeeeeeeeeeeeeeeeeeeeeeeeeeeeeeee, 1, meanTotalTime, 6.25, meanClassTime, 1.0, meanWorkTime, 1.25, meanHomeworkTime, 4.0, meanClubTime, 0.0, meanStress, 2.5, meanAssignments, 0.5, 
11/11/2022, the, 42, for, 4, feel, 3, which, 3, get, 3, ahead, 2, me, 2, up, 2, very, 2, in, 2, then, 2, some, 2, done, 2, but, 2, is, 2, celebrate, 2, alright, 1, achieving, 1, all, 1, goals, 1, getting, 1, gives, 1, room, 1, further, 1, really, 1, tired, 1, though, 1, coasted, 1, through, 1, hungover, 1, bad, 1, waking, 1, late, 1, contemplating, 1, out, 1, again, 1, tonight, 1, lazy, 1, morning, 1, slept, 1, made, 1, toast, 1, breakfast, 1, scones, 1, took, 1, nap, 1, woke, 1, tried, 1, work, 1, solidworks, 1, wouldnt, 1, install, 1, right, 1, on, 1, computer, 1, frustrating, 1, however, 1, at, 1, 5, 1, an, 1, email, 1, letting, 1, know, 1, had, 1, been, 1, accepted, 1, blue, 1, origin, 1, internship, 1, spring, 1, super, 1, exciting, 1, wanted, 1, homework, 1, with, 1, this, 1, good, 1, news, 1, need, 1, instead, 1, important, 1, wins, 1, life, 1, especially, 1, after, 1, stressful, 1, week, 1, meanTotalTime, 4.0, meanClassTime, 0.8333333333333334, meanWorkTime, 0.6666666666666666, meanHomeworkTime, 1.5, meanClubTime, 1.0, meanStress, 2.6666666666666665, meanAssignments, 1.0, 
11/12/2022, the, 6, able, 1, do, 1, errands, 1, had, 1, friendsgiving, 1, which, 1, nice, 1, out, 1, club, 1, tonight, 1, meanTotalTime, 1.0, meanClassTime, 0.0, meanWorkTime, 0.0, meanHomeworkTime, 1.0, meanClubTime, 0.0, meanStress, 2.0, meanAssignments, 0.0, 
11/13/2022, the, 29, hungover, 2, did, 2, some, 2, homework, 2, woke, 1, up, 1, early, 1, on, 1, phone, 1, lot, 1, been, 1, suspenseful, 1, anticipating, 1, new, 1, week, 1, great, 1, really, 1, enjoyed, 1, relaxing, 1, needed, 1, do, 1, took, 1, break, 1, much, 1, whole, 1, weekend, 1, not, 1, behind, 1, as, 1, result, 1, overall, 1, content, 1, stressed, 1, about, 1, job, 1, stuff, 1, though, 1, meanTotalTime, 1.3333333333333333, meanClassTime, 0.0, meanWorkTime, 0.0, meanHomeworkTime, 1.3333333333333333, meanClubTime, 0.0, meanStress, 2.6666666666666665, meanAssignments, 0.0, 
11/14/2022, the, 77, is, 4, have, 4, this, 4, but, 4, could, 3, making, 3, be, 3, week, 3, cold, 3, assignments, 3, everything, 3, homework, 3, just, 2, still, 2, wish, 2, all, 2, down, 2, with, 2, large, 2, dont, 2, hours, 2, emails, 2, any, 2, about, 2, good, 2, internship, 2, on, 2, despite, 1, sleeping, 1, been, 1, long, 1, draining, 1, think, 1, come, 1, bit, 1, harder, 1, do, 1, luckily, 1, lot, 1, less, 1, stress, 1, some, 1, upcoming, 1, group, 1, projects, 1, contribute, 1, more, 1, current, 1, mental, 1, state, 1, that, 1, difficult, 1, better, 1, person, 1, looks, 1, like, 1, care, 1, enough, 1, one, 1, because, 1, same, 1, mistakes, 1, even, 1, though, 1, only, 1, 4, 1, sleep, 1, through, 1, distracted, 1, by, 1, however, 1, many, 1, logistics, 1, figure, 1, out, 1, before, 1, take, 1, spring, 1, opportunity, 1, blue, 1, thankfully, 1, didnt, 1, due, 1, tonight, 1, sit, 1, spend, 1, 3, 1, sending, 1, sure, 1, doing, 1, right, 1, should, 1, do-able, 1, hot, 1, coco, 1, keeping, 1, me, 1, in, 1, weather, 1, went, 1, gym, 1, really, 1, able, 1, finish, 1, had, 1, technical, 1, assessment, 1, for, 1, an, 1, nervous, 1, did, 1, decent, 1, proud, 1, myself, 1, also, 1, worked, 1, hard, 1, managed, 1, get, 1, done, 1, meanTotalTime, 5.0, meanClassTime, 1.5, meanWorkTime, 1.25, meanHomeworkTime, 2.25, meanClubTime, 0.0, meanStress, 2.5, meanAssignments, 0.75, 
11/15/2022, the, 64, been, 4, well, 3, went, 3, looking, 2, at, 2, early, 2, work, 2, had, 2, that, 2, really, 2, from, 2, an, 2, which, 2, like, 2, with, 2, nice, 2, in, 2, have, 2, without, 2, much, 2, able, 2, homework, 2, get, 2, depressing, 1, paranoid, 1, too, 1, news, 1, up, 1, go, 1, actually, 1, made, 1, for, 1, first, 1, time, 1, ever, 1, exciting, 1, rested, 1, do, 1, job, 1, feeling, 1, fall, 1, asleep, 1, meeting, 1, boeing, 1, technical, 1, fellow, 1, he, 1, super, 1, interesting, 1, talk, 1, hope, 1, learn, 1, lot, 1, him, 1, upcoming, 1, months, 1, free, 1, pizza, 1, internship, 1, event, 1, then, 1, interview, 1, think, 1, forward, 1, hearing, 1, response, 1, company, 1, good, 1, relationship, 1, sister, 1, gotten, 1, better, 1, dont, 1, feel, 1, drowning, 1, is, 1, mildly, 1, busy, 1, could, 1, worse, 1, definitely, 1, procrastinated, 1, but, 1, consequences, 1, bad, 1, didnt, 1, done, 1, taylor, 1, swift, 1, tickets, 1, though, 1, meanTotalTime, 7.1, meanClassTime, 2.5, meanWorkTime, 2.1, meanHomeworkTime, 2.3, meanClubTime, 0.2, meanStress, 3.0, meanAssignments, 0.6, 
11/16/2022, the, 68, good, 4, for, 4, had, 4, homework, 3, but, 3, all, 3, me, 3, with, 3, when, 2, been, 2, have, 2, because, 2, were, 2, early, 2, still, 2, classes, 2, in, 2, time, 2, she, 2, also, 2, which, 2, nice, 2, feels, 1, great, 1, dont, 1, any, 1, do, 1, much, 1, less, 1, stressed, 1, can, 1, take, 1, break, 1, scared, 1, use, 1, stairs, 1, legs, 1, sore, 1, very, 1, busy, 1, couldnt, 1, get, 1, snow, 1, tires, 1, put, 1, on, 1, overall, 1, disappointing, 1, started, 1, too, 1, lab, 1, went, 1, smoothly, 1, zero, 1, understanding, 1, what, 1, we, 1, supposed, 1, learn, 1, lecture, 1, made, 1, feel, 1, stupid, 1, not, 1, remembering, 1, weird, 1, math, 1, rules, 1, calculus, 1, differential, 1, equation, 1, catching, 1, up, 1, boss, 1, though, 1, since, 1, gone, 1, last, 1, week, 1, super, 1, excited, 1, regarding, 1, internship, 1, accidentally, 1, missed, 1, class, 1, talked, 1, her, 1, long, 1, conversation, 1, graduate, 1, student, 1, fiz, 1, distracted, 1, from, 1, swe, 1, meeting, 1, low, 1, turnout, 1, food, 1, wasnt, 1, really, 1, spend, 1, some, 1, one, 1, friends, 1, finished, 1, could, 1, actually, 1, enjoy, 1, night, 1, off, 1, meanTotalTime, 9.333333333333334, meanClassTime, 3.3333333333333335, meanWorkTime, 1.6666666666666667, meanHomeworkTime, 3.6666666666666665, meanClubTime, 0.6666666666666666, meanStress, 2.0, meanAssignments, 1.3333333333333333, 
11/17/2022, the, 64, on, 4, feel, 4, but, 4, exam, 3, work, 3, nice, 3, an, 2, like, 2, really, 2, for, 2, had, 2, get, 2, very, 2, done, 2, time, 2, still, 2, with, 2, falling, 1, behind, 1, lack, 1, motivation, 1, feeling, 1, depressed, 1, woke, 1, up, 1, at, 1, 3, 1, study, 1, after, 1, worked, 1, presentation, 1, received, 1, good, 1, news, 1, because, 1, scored, 1, 92, 1, 90, 1, clutch, 1, busy, 1, there, 1, lot, 1, be, 1, enjoyable, 1, having, 1, easy, 1, days, 1, without, 1, homework, 1, this, 1, is, 1, relaxation, 1, lab, 1, late, 1, ended, 1, early, 1, bad, 1, some, 1, figure, 1, out, 1, schedule, 1, remaining, 1, classes, 1, need, 1, take, 1, went, 1, well, 1, complimented, 1, how, 1, fast, 1, bat, 1, think, 1, just, 1, lucky, 1, compliment, 1, dont, 1, satisfied, 1, in, 1, english, 1, 402, 1, not, 1, sure, 1, what, 1, do, 1, about, 1, tin, 1, tans, 1, friends, 1, which, 1, luckily, 1, have, 1, nothing, 1, due, 1, tonight, 1, or, 1, tomorrow, 1, slightly, 1, stressed, 1, meanTotalTime, 8.625, meanClassTime, 2.5, meanWorkTime, 1.125, meanHomeworkTime, 4.75, meanClubTime, 0.25, meanStress, 3.0, meanAssignments, 1.0, 
11/18/2022, the, 20, been, 3, did, 2, casual, 1, had, 1, an, 1, exam, 1, think, 1, okay, 1, excited, 1, for, 1, thanksgiving, 1, break, 1, drunk, 1, right, 1, but, 1, very, 1, good, 1, chillaxrdd, 1, nothing, 1, love, 1, here, 1, its, 1, long, 1, didnt, 1, go, 1, class, 1, again, 1, feeling, 1, behind, 1, meanTotalTime, 4.333333333333333, meanClassTime, 0.8333333333333334, meanWorkTime, 2.1666666666666665, meanHomeworkTime, 1.3333333333333333, meanClubTime, 0.0, meanStress, 3.0, meanAssignments, 0.6666666666666666, 
11/19/2022, the, 8, good, 1, hungover, 1, most, 1, but, 1, feeling, 1, better, 1, happy, 1, without, 1, any, 1, work, 1, meanTotalTime, 0.0, meanClassTime, 0.0, meanWorkTime, 0.0, meanHomeworkTime, 0.0, meanClubTime, 0.0, meanStress, 1.0, meanAssignments, 0.0, 
11/20/2022, the, 31, some, 2, house, 2, on, 2, stressed, 2, is, 2, spent, 2, time, 2, very, 2, woke, 1, up, 1, really, 1, hungover, 1, feel, 1, tired, 1, bad, 1, behind, 1, homework, 1, uneventful, 1, plenty, 1, sleep, 1, did, 1, chores, 1, around, 1, playing, 1, video, 1, games, 1, just, 1, chilling, 1, showered, 1, went, 1, over, 1, friends, 1, make, 1, gumbo, 1, gotta, 1, pack, 1, clean, 1, all, 1, want, 1, do, 1, procrastinate, 1, girlfriend, 1, also, 1, which, 1, rubs, 1, off, 1, me, 1, been, 1, good, 1, see, 1, family, 1, with, 1, boyfriend, 1, meanTotalTime, 0.5, meanClassTime, 0.0, meanWorkTime, 0.0, meanHomeworkTime, 0.5, meanClubTime, 0.0, meanStress, 3.0, meanAssignments, 0.0, 
11/21/2022, the, 36, can, 3, had, 3, up, 2, work, 2, with, 2, slept, 2, wish, 2, bit, 1, stressed, 1, this, 1, morning, 1, since, 1, heading, 1, back, 1, home, 1, for, 1, break, 1, be, 1, difficult, 1, working, 1, around, 1, sisters, 1, schedule, 1, overall, 1, though, 1, relaxing, 1, woke, 1, sore, 1, throat, 1, call, 1, off, 1, almost, 1, all, 1, due, 1, terrible, 1, headache, 1, could, 1, have, 1, been, 1, productive, 1, gotten, 1, stuff, 1, done, 1, but, 1, too, 1, sick, 1, do, 1, that, 1, hopefully, 1, wake, 1, better, 1, tomorrow, 1, actually, 1, go, 1, in, 1, watched, 1, some, 1, lectures, 1, did, 1, more, 1, homework, 1, went, 1, gym, 1, lunch, 1, mom, 1, which, 1, very, 1, nice, 1, meanTotalTime, 1.0, meanClassTime, 0.0, meanWorkTime, 0.0, meanHomeworkTime, 1.0, meanClubTime, 0.0, meanStress, 3.0, meanAssignments, 0.0, 
11/22/2022, the, 15, with, 2, went, 2, good, 1, played, 1, games, 1, family, 1, relaxed, 1, fun, 1, times, 1, woke, 1, up, 1, early, 1, school, 1, sisters, 1, gym, 1, which, 1, nice, 1, currently, 1, at, 1, applebees, 1, drinking, 1, sleigh, 1, bell, 1, slips, 1, meanTotalTime, 2.0, meanClassTime, 0.0, meanWorkTime, 0.0, meanHomeworkTime, 2.0, meanClubTime, 0.0, meanStress, 2.0, meanAssignments, 0.0, 
11/23/2022, the, 21, more, 3, which, 3, politics, 2, stress, 2, is, 2, on, 2, with, 2, family, 2, went, 2, then, 2, came, 2, we, 2, together, 2, nice, 2, good, 2, okay, 1, lot, 1, girlfriend, 1, worried, 1, about, 1, dealing, 1, her, 1, thanksgiving, 1, putting, 1, me, 1, as, 1, well, 1, parents, 1, are, 1, watching, 1, stuff, 1, did, 1, cleaning, 1, chores, 1, shopping, 1, friend, 1, break, 1, over, 1, out, 1, dinner, 1, food, 1, very, 1, yummy, 1, home, 1, watched, 1, movies, 1, had, 1, time, 1, slept, 1, in, 1, didnt, 1, do, 1, any, 1, homework, 1, though, 1, meanTotalTime, 0.0, meanClassTime, 0.0, meanWorkTime, 0.0, meanHomeworkTime, 0.0, meanClubTime, 0.0, meanStress, 3.0, meanAssignments, 0.0, 
11/24/2022, the, 34, good, 3, stayed, 2, up, 2, took, 2, nap, 2, which, 2, have, 2, didnt, 2, accidentally, 1, too, 1, late, 1, last, 1, night, 1, extra, 1, tired, 1, dad, 1, came, 1, over, 1, with, 1, brothers, 1, he, 1, made, 1, us, 1, pancakes, 1, cinnamon, 1, rolls, 1, for, 1, breakfast, 1, then, 1, we, 1, toured, 1, campus, 1, fun, 1, they, 1, left, 1, spent, 1, an, 1, hour, 1, bit, 1, cleaning, 1, after, 1, them, 1, all, 1, had, 1, thanksgiving, 1, at, 1, fiz, 1, much, 1, talk, 1, about, 1, just, 1, on, 1, phone, 1, random, 1, anxiety, 1, sucks, 1, but, 1, dinner, 1, content, 1, slept, 1, in, 1, do, 1, any, 1, homework, 1, meanTotalTime, 0.0, meanClassTime, 0.0, meanWorkTime, 0.0, meanHomeworkTime, 0.0, meanClubTime, 0.0, meanStress, 3.0, meanAssignments, 0.0, 
11/25/2022, the, 15, full, 1, meet, 1, with, 1, old, 1, friends, 1, had, 1, good, 1, ate, 1, too, 1, much, 1, family, 1, teases, 1, lot, 1, slept, 1, in, 1, out, 1, planning, 1, get, 1, super, 1, drunk, 1, meanTotalTime, 0.0, meanClassTime, 0.0, meanWorkTime, 0.0, meanHomeworkTime, 0.0, meanClubTime, 0.0, meanStress, 3.5, meanAssignments, 0.0, 
11/26/2022, the, 16, lot, 2, back, 2, pullman, 2, tough, 1, girlfriend, 1, id, 1, through, 1, effects, 1, on, 1, me, 1, also, 1, went, 1, which, 1, such, 1, hassle, 1, super, 1, hungover, 1, rode, 1, feel, 1, depressed, 1, about, 1, decisions, 1, meanTotalTime, 0.0, meanClassTime, 0.0, meanWorkTime, 0.0, meanHomeworkTime, 0.0, meanClubTime, 0.0, meanStress, 4.5, meanAssignments, 0.0, 
11/27/2022, the, 7, some, 3, been, 1, alright, 1, there, 1, good, 1, bad, 1, in-between, 1, stressful, 1, but, 1, also, 1, relax, 1, meanTotalTime, 0.0, meanClassTime, 0.0, meanWorkTime, 0.0, meanHomeworkTime, 0.0, meanClubTime, 0.0, meanStress, 3.0, meanAssignments, 0.0, 
