Timestamp,"In 3+ sentences, describe how your day has been.","Estimate how many hours you've spent in classes, exams, office hours, or labs today.",Estimate how many hours you've spent at work today.,"Estimate how many hours you've spent at club activities (meetings, events, etc) today.","Estimate how many hours you've spent studying, doing homework, or in a study group today.",How many assignments did you have due today?,,Rate your stress level (1-5) today.
10/27/2022 15:36:05,Test,0,0,0,0,0,,0
10/31/2022 0:29:08,Text Here,,2,4,0,7,1,,5
10/31/2022 8:31:42,Text Here,,1,2,0,6,0,,4
10/31/2022 13:32:40,Text Here,,4,2,0,3,1,,2
10/31/2022 14:51:52,Text Here,3,0,0,5,1,,4
10/31/2022 15:43:21,Text Here,3.5,3.5,0,4,3,,3
10/31/2022 19:12:01,Text Here,,3,0,0,4,1,,4
11/1/2022 23:43:10,Text Here,,3.75,2,0,2,1,,3
11/1/2022 13:26:08,Text Here,2,0,0,7,0,,4
11/2/2022 21:35:14,Text Here,2,0,0,7,0,,4
11/2/2022 22:09:02,Text Here,,5,0,1,1,1,,2
11/1/2022 22:18:06,Text Here,1.25,6,2,5,2,,4
11/2/2022 22:24:20,Text Here,0,3,0,8.5,2,,4
11/2/2022 23:50:06,Text Here,4,2,0,2,1,,2
11/3/2022 21:08:27,Text Here,2,0,0,6,0,,2
11/3/2022 22:13:58,Text Here,,3.75,2,4,2,1,,4
11/3/2022 22:23:53,Text Here,,4.5,0,0,9,2,,4
11/3/2022 22:49:37,Text Here,1,0,0,0,0,,2
11/4/2022 0:43:02,Text Here,,1,0,0,1,0,,2
11/4/2022 21:09:59,Text Here,2,0,0,3,0,,2
11/5/2022 22:30:01,Text Here,0,0,0,3,0,,4
11/5/2022 16:12:35,Text Here,,0,0,0,5,0,,4
11/6/2022 21:01:15,Text Here,0,0,0,4,1,,4
11/6/2022 21:47:11,Text Here,0,0,0,0,0,,2
11/6/2022 23:08:06,Text Here,,0,0,0,6,0,,4
11/6/2022 23:11:18,Text Here,,0,0,4.5,1.75,1,,3
11/7/2022 21:33:41,Text Here,3,0,0,4,1,,4
11/7/2022 8:10:57,Text Here,,1,2,0,4,0,,4
11/7/2022 9:13:05,Text Here,4,0,0,8,1,,3
11/7/2022 12:22:55,Text Here,2,4,0,6,2,,3
11/8/2022 21:04:13,Text Here,0,0,0,3,0,,3
11/8/2022 21:08:31,Text Here,,0,2,0,2.5,0,,3
11/8/2022 21:47:21,Text Here,,0,6,0,0,0,,3
11/9/2022 4:25:08,Text Here,1,5,1,11,2,,5
11/9/2022 19:31:41,Text Here,,3,0,0,4,0,,2
11/9/2022 0:18:38,Text Here,4,0,0,10,1,,3
11/9/2022 0:19:53,Text Here,,1,2.5,0,0.5,0,,2
11/9/2022 0:48:24,Text Here,7,0,0,9,2,,4
11/9/2022 10:48:14,Text Here,,1,3,0,3.5,0,,3
11/10/2022 20:29:13,Text Here,0,0,0,3,0,,2
11/10/2022 20:52:46,Text Here,2,2.5,0,5,1,,3
11/11/2022 0:18:23,Text Here,,2.5,2,3,2.5,2,,4
11/11/2022 21:02:03,Text Here,0,0,0,1,0,,2
11/11/2022 21:10:09,Text Here,,0,0,0,1,1,,2
11/12/2022 23:35:57,Text Here,0,0,0,1,0,,2
11/13/2022 21:03:28,Text Here,0,0,0,2,0,,2
11/13/2022 23:43:47,Text Here,0,0,0,0,0,,4
11/14/2022 0:53:25,Text Here,0,0,0,0,0,,4
11/13/2022 8:12:28,Text Here,,0,0,0,2,0,,2
11/14/2022 21:17:49,Text Here,,2,3,0,3,0,,1
11/14/2022 22:11:08,Text Here,3,0,0,3,2,,2
11/14/2022 8:23:03,Text Here,,1,2,0,3,1,,3
11/15/2022 14:08:52,Text Here,1,2.5,0,3,1,,4
11/15/2022 21:13:30,Text Here,1,6,1,1,1,,2
11/15/2022 21:19:41,Text Here,,3.5,2,0,3.5,0,,3
11/15/2022 21:37:15,Text Here,4,0,0,2,1,,2
11/15/2022 22:43:17,Text Here,3,0,0,2,0,,4
11/16/2022 21:23:24,Text Here,1,3,0,2,0,,2
11/16/2022 22:17:11,Text Here,4,2,0,5,2,,3
11/16/2022 22:36:21,Text Here,5,0,2,4,2,,1
11/17/2022 17:58:31,Text Here,0,0,0,2,0,,4
11/17/2022 20:52:10,Text Here,4.5,0,0,13,2,,3
11/17/2022 20:56:59,Text Here,3.5,2,1,1,1,,2
11/17/2022 21:26:50,Text Here,2,2.5,0,3,1,,3
11/18/2022 0:14:27,Text Here,2.5,3.5,0,3,0,,3
11/18/2022 21:11:45,Text Here,0,3,0,0,0,,2
11/18/2022 23:30:36,Text Here,0,0,0,1,2,,4
11/19/2022 22:06:09,Text Here,0,0,0,0,0,,1
11/20/2022 16:35:38,Text Here,0,0,0,2,0,,4
11/20/2022 21:00:08,Text Here,,0,0,0,0,0,,2
11/20/2022 21:13:48,Text Here,,0,0,0,0,0,,4
11/20/2022 22:09:28,Text Here,0,0,0,0,0,,2
11/21/2022 20:54:12,Text Here,,0,0,0,0,0,,3
11/21/2022 21:21:21,Text Here,0,0,0,0,0,,3
11/21/2022 23:06:43,Text Here,0,0,0,3,0,,3
11/22/2022 21:26:15,Text Here,0,0,0,0,0,,2
11/22/2022 22:09:49,Text Here,0,0,0,4,0,,2
11/23/2022 20:52:29,Text Here,,0,0,0,0,0,,4
11/23/2022 21:05:00,Text Here,0,0,0,0,0,,3
11/23/2022 23:19:13,Text Here,0,0,0,0,0,,2
11/24/2022 21:09:28,Text Here,0,0,0,0,0,,3
11/24/2022 21:22:26,Text Here,0,0,0,0,0,,3
11/24/2022 22:07:46,Text Here,0,0,0,0,0,,3
11/25/2022 21:25:19,Text Here,0,0,0,0,0,,3
11/25/2022 23:03:59,Text Here,0,0,0,0,0,,4
11/26/2022 22:55:42,Text Here,,0,0,0,0,0,,5
11/26/2022 23:19:29,Text Here,0,0,0,0,0,,4
11/27/2022 21:57:55,Text Here,,0,0,0,0,0,,3,