HIGH STRESS
the,8,
homework,6,
just,6,
with,5,
on,5,
that,5,
do,5,
had,5,
also,5,
but,5,
there,5,
lot,5,
in,5,
been,4,
get,4,
some,4,
about,4,
be,4,
time,4,
circuits,4,
stressed,4,
tired,4,
have,4,
well,4,
work,4,
good,4,
super,4,
me,4,
out,4,
sleep,4,
feel,4,
stressful,3,
busy,3,
all,3,
at,3,
hours,3,
enough,3,
an,3,
falling,3,
up,3,
after,3,
spent,3,
this,3,
very,3,
for,3,
classes,3,
friends,3,
exam,3,
did,3,
done,3,
tomorrow,3,
more,3,
not,3,
went,3,
over,2,
long,2,
as,2,
sucked,2,
being,2,
want,2,
wasnt,2,
bad,2,
grade,2,
working,2,
right,2,
morning,2,
late,2,
night,2,
feeling,2,
behind,2,
need,2,
its,2,
most,2,
exams,2,
solid,2,
luckily,2,
midnight,2,
amount,2,
club,2,
meeting,2,
how,2,
miserable,2,
felt,2,
take,2,
what,2,
were,2,
drunk,2,
ill,2,
really,2,
no,2,
nothing,2,
hungover,2,
unproductive,2,
much,2,
is,2,
nap,2,
go,2,
decent,2,
took,2,
future,2,
which,2,
little,2,
class,2,
nice,2,
slow,2,
okay,2,
girlfriend,2,
will,2,
made,2,
professor,2,
wish,2,
could,2,
job,2,
doing,2,
progress,2,
wanted,2,
later,2,
than,2,
through,2,
trying,1,
overwhelming,1,
exhausting,1,
unfulfilling,1,
hospital,1,
hated,1,
poked,1,
prodded,1,
medical,1,
issues,1,
pissed,1,
6,1,
finish,1,
tiring,1,
place,1,
everything,1,
scrambling,1,
early,1,
filled,1,
errands,1,
exercise,1,
mostly,1,
casual,1,
anxious,1,
paying,1,
rent,1,
manage,1,
finances,1,
changed,1,
major,1,
rescheduling,1,
years,1,
because,1,
week,1,
few,1,
doctors,1,
appointments,1,
distasteful,1,
schoolwork,1,
during,1,
exhausted,1,
end,1,
watch,1,
episode,1,
played,1,
overall,1,
tried,1,
prepare,1,
fun,1,
productive,1,
practice,1,
cannons,1,
taing,1,
uneventful,1,
entire,1,
stressing,1,
before,1,
spare,1,
hosted,1,
low,1,
turnout,1,
still,1,
positive,1,
experience,1,
despite,1,
hard,1,
understand,1,
or,1,
process,1,
panelists,1,
saying,1,
due,1,
constant,1,
state,1,
deprivation,1,
kind,1,
motivation,1,
tension,1,
matter,1,
never,1,
woke,1,
great,1,
laid-back,1,
relaxing,1,
gotten,1,
continued,1,
are,1,
many,1,
deadlines,1,
coming,1,
final,1,
projects,1,
approaching,1,
apart,1,
rested,1,
stress,1,
away,1,
happens,1,
cry,1,
relaxed,1,
off,1,
does,1,
mean,1,
volunteer,1,
resolved,1,
conflict,1,
rest,1,
bit,1,
distracted,1,
problem,1,
by,1,
walked,1,
cold,1,
spending,1,
hanging,1,
rejection,1,
demoralizing,1,
however,1,
keeping,1,
helping,1,
her,1,
surgery,1,
cramming,1,
small,1,
scared,1,
majority,1,
couldnt,1,
figure,1,
stay,1,
his,1,
office,1,
help,1,
question,1,
makes,1,
sense,1,
perfectly,1,
self-conscious,1,
each,1,
task,1,
steady,1,
asleep,1,
sadly,1,
expected,1,
since,1,
cleaning,1,
eating,1,
food,1,
schedule,1,
better,1,
into,1,
fluids,1,
damn,1,
able,1,
nonstop,1,
go-go-going,1,
contribute,1,
didnt,1,
pay,1,
any,1,
attention,1,
ta,1,
5,1,
fiz,1,
like,1,
guess,1,
figured,1,
spring,1,
efficient,1,
review,1,
session,1,
already,1,
least,1,
quickly,1,
registration,1,
doubt,1,
laboratory,1,
we,1,
find,1,
way,1,
cant,1,
wait,1,
bed,1,
gym,1,
studying,1,
eat,1,
affected,1,
mood,1,
would,1,
proper,1,
management,1,
easy,1,
sleepy,1,
lab,1,
frustrating,1,
then,1,
giant,1,
argument,1,
student,1,
anxiety,1,
inducing,1,
terrible,1,
kid,1,
register,1,
even,1,
times,1,
finally,1,
news,1,
running,1,
manufacturing,1,
engineering,1,
unbearable,1,
afternoon,1,
thankful,1,
staying,1,
let,1,
home,1,
seven,1,
straight,1,
ready,1,
god,1,
run,1,
ahead,1,
happy,1,
full,1,
meet,1,
old,1,
ate,1,
too,1,
family,1,
teases,1,
slept,1,
planning,1,
back,1,
pullman,1,
tough,1,
id,1,
effects,1,
such,1,
hassle,1,
rode,1,
depressed,1,
decisions,1,
,0,

MODERATE STRESS
the,11,
good,10,
but,9,
which,8,
had,8,
do,8,
with,8,
homework,8,
in,7,
an,7,
very,7,
went,7,
been,7,
feel,6,
work,6,
did,6,
up,6,
for,6,
about,5,
some,5,
lot,5,
stressed,5,
on,5,
bad,5,
is,5,
tired,4,
tomorrow,4,
just,4,
really,4,
be,4,
busy,4,
like,4,
done,4,
all,4,
then,4,
nice,4,
have,4,
time,4,
didnt,4,
me,3,
exam,3,
made,3,
dont,3,
better,3,
took,3,
after,3,
want,3,
that,3,
chores,3,
early,3,
overall,3,
off,3,
cleaning,3,
late,3,
girlfriend,3,
well,3,
at,3,
too,3,
go,3,
feeling,3,
think,3,
though,3,
behind,3,
woke,3,
thanksgiving,3,
break,3,
over,3,
slept,3,
nap,2,
will,2,
fiz,2,
one,2,
easy,2,
last,2,
days,2,
stressful,2,
procrastinated,2,
likely,2,
sleep,2,
tonight,2,
motivation,2,
still,2,
not,2,
because,2,
right,2,
class,2,
morning,2,
house,2,
sick,2,
interesting,2,
headache,2,
without,2,
much,2,
get,2,
news,2,
actually,2,
he,2,
talk,2,
gotten,2,
could,2,
there,2,
this,2,
out,2,
schedule,2,
friends,2,
nothing,2,
due,2,
okay,2,
spent,2,
around,2,
also,2,
family,2,
bit,2,
home,2,
stuff,2,
watched,2,
more,2,
came,2,
we,2,
dinner,2,
any,2,
harder,1,
than,1,
expected,1,
cranky,1,
pissy,1,
easily,1,
annoyed,1,
drank,1,
hot,1,
coco,1,
ate,1,
burrito,1,
refreshed,1,
energized,1,
only,1,
assignment,1,
welcome,1,
change,1,
hell,1,
tiring,1,
through,1,
general,1,
frantic,1,
flurry,1,
near-constant,1,
being,1,
dumb,1,
wasted,1,
cost,1,
exhausted,1,
built,1,
different,1,
relaxed,1,
needed,1,
extremely,1,
achieved,1,
proud,1,
however,1,
exhausting,1,
pull,1,
nighter,1,
simply,1,
by,1,
mean,1,
defective,1,
stupid,1,
caffeinated,1,
started,1,
terribly,1,
improving,1,
skipped,1,
focus,1,
waking,1,
washed,1,
car,1,
cleaned,1,
apartment,1,
hospital,1,
routine,1,
procedure,1,
ton,1,
felt,1,
wasnt,1,
weird,1,
light,1,
workload,1,
deal,1,
anxious,1,
current,1,
state,1,
world,1,
looking,1,
from,1,
able,1,
depressing,1,
paranoid,1,
first,1,
ever,1,
exciting,1,
rested,1,
job,1,
fall,1,
asleep,1,
meeting,1,
boeing,1,
technical,1,
fellow,1,
super,1,
hope,1,
learn,1,
him,1,
upcoming,1,
months,1,
free,1,
pizza,1,
internship,1,
event,1,
interview,1,
forward,1,
hearing,1,
response,1,
company,1,
relationship,1,
sister,1,
drowning,1,
mildly,1,
worse,1,
definitely,1,
consequences,1,
taylor,1,
swift,1,
tickets,1,
falling,1,
lack,1,
depressed,1,
3,1,
study,1,
worked,1,
presentation,1,
received,1,
scored,1,
92,1,
90,1,
clutch,1,
enjoyable,1,
having,1,
relaxation,1,
lab,1,
ended,1,
figure,1,
remaining,1,
classes,1,
need,1,
take,1,
complimented,1,
how,1,
fast,1,
bat,1,
lucky,1,
compliment,1,
satisfied,1,
english,1,
402,1,
sure,1,
what,1,
tin,1,
tans,1,
luckily,1,
or,1,
slightly,1,
casual,1,
excited,1,
drunk,1,
chillaxrdd,1,
love,1,
here,1,
its,1,
long,1,
again,1,
hungover,1,
uneventful,1,
plenty,1,
playing,1,
video,1,
games,1,
chilling,1,
showered,1,
make,1,
gumbo,1,
gotta,1,
pack,1,
clean,1,
procrastinate,1,
rubs,1,
see,1,
boyfriend,1,
can,1,
wish,1,
since,1,
heading,1,
back,1,
difficult,1,
working,1,
sisters,1,
relaxing,1,
sore,1,
throat,1,
call,1,
almost,1,
terrible,1,
productive,1,
hopefully,1,
wake,1,
lectures,1,
gym,1,
lunch,1,
mom,1,
politics,1,
stress,1,
together,1,
worried,1,
dealing,1,
her,1,
putting,1,
as,1,
parents,1,
are,1,
watching,1,
shopping,1,
friend,1,
food,1,
yummy,1,
movies,1,
stayed,1,
accidentally,1,
night,1,
extra,1,
dad,1,
brothers,1,
us,1,
pancakes,1,
cinnamon,1,
rolls,1,
breakfast,1,
toured,1,
campus,1,
fun,1,
they,1,
left,1,
hour,1,
them,1,
phone,1,
random,1,
anxiety,1,
sucks,1,
content,1,
alright,1,
in-between,1,
relax,1,
,0,

LOW STRESS
the,9,
but,6,
good,6,
some,6,
do,6,
in,5,
get,5,
had,5,
for,5,
which,5,
week,5,
been,5,
out,5,
though,5,
with,5,
up,5,
is,4,
have,4,
done,4,
much,4,
work,4,
this,4,
early,4,
me,4,
went,4,
tonight,4,
internship,4,
all,4,
really,4,
on,4,
homework,4,
however,3,
could,3,
class,3,
did,3,
better,3,
took,3,
off,3,
luckily,3,
we,3,
dont,3,
slept,3,
able,3,
at,3,
an,3,
gym,3,
not,3,
blue,3,
hungover,3,
woke,3,
nice,3,
any,3,
school,2,
tried,2,
bad,2,
letting,2,
down,2,
many,2,
more,2,
than,2,
whole,2,
enough,2,
that,2,
can,2,
after,2,
questions,2,
stressful,2,
they,2,
know,2,
what,2,
further,2,
are,2,
opportunity,2,
excited,2,
night,2,
started,2,
too,2,
hard,2,
managed,2,
lab,2,
classes,2,
be,2,
fiz,2,
friends,2,
then,2,
from,2,
origin,2,
happy,2,
exciting,2,
fun,2,
job,2,
just,2,
feel,2,
very,2,
through,2,
made,2,
right,2,
spring,2,
super,2,
lot,2,
great,2,
break,2,
overall,2,
stressed,2,
about,2,
still,2,
long,2,
less,2,
one,2,
because,2,
distracted,2,
take,2,
spend,2,
also,2,
couple,1,
well,1,
pain,1,
no,1,
amount,1,
advil,1,
rid,1,
terrible,1,
cramps,1,
skip,1,
felt,1,
coworkers,1,
groupmates,1,
rest,1,
looking,1,
forward,1,
tomorrow,1,
being,1,
cravings,1,
ate,1,
calories,1,
probably,1,
guess,1,
havent,1,
treating,1,
body,1,
lately,1,
maybe,1,
its,1,
talk,1,
mother,1,
fafsa,1,
sucked,1,
knew,1,
anyway,1,
almost,1,
likely,1,
submit,1,
days,1,
way,1,
financials,1,
taxes,1,
financial,1,
aid,1,
always,1,
oh,1,
test,1,
results,1,
came,1,
back,1,
negative,1,
cancer,1,
plus,1,
mass,1,
options,1,
treatment,1,
limited,1,
skipped,1,
unproductive,1,
go,1,
circumference,1,
might,1,
latino,1,
fall,1,
asleep,1,
stay,1,
half,1,
pay,1,
attention,1,
ended,1,
into,1,
tutoring,1,
answered,1,
manufacturing,1,
engineering,1,
fluid,1,
mechanics,1,
measured,1,
balls,1,
precision,1,
equipment,1,
found,1,
advertised,1,
larger,1,
actual,1,
hang,1,
english,1,
call,1,
notifying,1,
loosing,1,
shit,1,
such,1,
amazing,1,
networking,1,
cannot,1,
contain,1,
excitement,1,
called,1,
grandma,1,
grandpa,1,
stem,1,
mentors,1,
woohoooooooo,1,
aerospaceeeeeeeeeeeeeeeeeeeeeeeeeeeeeeeeeeeeeeeeeeeeeeee,1,
ahead,1,
celebrate,1,
alright,1,
achieving,1,
goals,1,
getting,1,
gives,1,
room,1,
tired,1,
coasted,1,
waking,1,
late,1,
contemplating,1,
again,1,
lazy,1,
morning,1,
toast,1,
breakfast,1,
scones,1,
nap,1,
solidworks,1,
wouldnt,1,
install,1,
computer,1,
frustrating,1,
5,1,
email,1,
accepted,1,
wanted,1,
news,1,
need,1,
instead,1,
important,1,
wins,1,
life,1,
especially,1,
errands,1,
friendsgiving,1,
club,1,
phone,1,
suspenseful,1,
anticipating,1,
new,1,
enjoyed,1,
relaxing,1,
needed,1,
weekend,1,
behind,1,
as,1,
result,1,
content,1,
stuff,1,
making,1,
cold,1,
assignments,1,
everything,1,
wish,1,
large,1,
hours,1,
emails,1,
despite,1,
sleeping,1,
draining,1,
think,1,
come,1,
bit,1,
harder,1,
stress,1,
upcoming,1,
group,1,
projects,1,
contribute,1,
current,1,
mental,1,
state,1,
difficult,1,
person,1,
looks,1,
like,1,
care,1,
same,1,
mistakes,1,
even,1,
only,1,
4,1,
sleep,1,
by,1,
logistics,1,
figure,1,
before,1,
thankfully,1,
didnt,1,
due,1,
sit,1,
3,1,
sending,1,
sure,1,
doing,1,
should,1,
do-able,1,
hot,1,
coco,1,
keeping,1,
weather,1,
finish,1,
technical,1,
assessment,1,
nervous,1,
decent,1,
proud,1,
myself,1,
worked,1,
when,1,
were,1,
time,1,
she,1,
feels,1,
scared,1,
use,1,
stairs,1,
legs,1,
sore,1,
busy,1,
couldnt,1,
snow,1,
tires,1,
put,1,
disappointing,1,
smoothly,1,
zero,1,
understanding,1,
supposed,1,
learn,1,
lecture,1,
stupid,1,
remembering,1,
weird,1,
math,1,
rules,1,
calculus,1,
differential,1,
equation,1,
catching,1,
boss,1,
since,1,
gone,1,
last,1,
regarding,1,
accidentally,1,
missed,1,
talked,1,
her,1,
conversation,1,
graduate,1,
student,1,
swe,1,
meeting,1,
low,1,
turnout,1,
food,1,
wasnt,1,
finished,1,
actually,1,
enjoy,1,
most,1,
feeling,1,
without,1,
played,1,
games,1,
family,1,
relaxed,1,
times,1,
sisters,1,
currently,1,
applebees,1,
drinking,1,
sleigh,1,
bell,1,
slips,1,
,0,
